%!PS-Adobe-2.0 EPSF-2.0
%%BoundingBox:  0 0 567 551
%%Title: alladccounts.eps: 
%%Creator: ROOT Version 5.34/04
%%CreationDate: Thu May 23 16:14:01 2013
%%EndComments
%%BeginProlog
80 dict begin
/s {stroke} def /l {lineto} def /m {moveto} def /t {translate} def
/r {rotate} def /rl {roll}  def /R {repeat} def
/d {rlineto} def /rm {rmoveto} def /gr {grestore} def /f {eofill} def
/c {setrgbcolor} def /black {0 setgray} def /sd {setdash} def
/cl {closepath} def /sf {scalefont setfont} def /lw {setlinewidth} def
/box {m dup 0 exch d exch 0 d 0 exch neg d cl} def
/NC{systemdict begin initclip end}def/C{NC box clip newpath}def
/bl {box s} def /bf {box f} def /Y { 0 exch d} def /X { 0 d} def 
/K {{pop pop 0 moveto} exch kshow} bind def
/ita {/ang 15 def gsave [1 0 ang dup sin exch cos div 1 0 0] concat} def 
/mp {newpath /y exch def /x exch def} def
/side {[w .77 mul w .23 mul] .385 w mul sd w 0 l currentpoint t -144 r} def
/mr {mp x y w2 0 360 arc} def /m24 {mr s} def /m20 {mr f} def
/mb {mp x y w2 add m w2 neg 0 d 0 w neg d w 0 d 0 w d cl} def
/mt {mp x y w2 add m w2 neg w neg d w 0 d cl} def
/m21 {mb f} def /m25 {mb s} def /m22 {mt f} def /m26{mt s} def
/m23 {mp x y w2 sub m w2 w d w neg 0 d cl f} def
/m27 {mp x y w2 add m w3 neg w2 neg d w3 w2 neg d w3 w2 d cl s} def
/m28 {mp x w2 sub y w2 sub w3 add m w3 0 d  0 w3 neg d w3 0 d 0 w3 d w3 0 d  0 w3 d w3 neg 0 d 0 w3 d w3 neg 0 d 0 w3 neg d w3 neg 0 d cl s } def
/m29 {mp gsave x w2 sub y w2 add w3 sub m currentpoint t 4 {side} repeat cl fill gr} def
/m30 {mp gsave x w2 sub y w2 add w3 sub m currentpoint t 4 {side} repeat cl s gr} def
/m31 {mp x y w2 sub m 0 w d x w2 sub y m w 0 d x w2 sub y w2 add m w w neg d x w2 sub y w2 sub m w w d s} def
/m32 {mp x y w2 sub m w2 w d w neg 0 d cl s} def
/m33 {mp x y w2 add m w3 neg w2 neg d w3 w2 neg d w3 w2 d cl f} def
/m34 {mp x w2 sub y w2 sub w3 add m w3 0 d  0 w3 neg d w3 0 d 0 w3 d w3 0 d  0 w3 d w3 neg 0 d 0 w3 d w3 neg 0 d 0 w3 neg d w3 neg 0 d cl f } def
/m2 {mp x y w2 sub m 0 w d x w2 sub y m w 0 d s} def
/m5 {mp x w2 sub y w2 sub m w w d x w2 sub y w2 add m w w neg d s} def
/reEncode {exch findfont dup length dict begin {1 index /FID eq  {pop pop} {def} ifelse } forall /Encoding exch def currentdict end dup /FontName get exch definefont pop } def [/Times-Bold /Times-Italic /Times-BoldItalic /Helvetica /Helvetica-Oblique
 /Helvetica-Bold /Helvetica-BoldOblique /Courier /Courier-Oblique /Courier-Bold /Courier-BoldOblique /Times-Roman /AvantGarde-Book /AvantGarde-BookOblique /AvantGarde-Demi /AvantGarde-DemiOblique /Bookman-Demi /Bookman-DemiItalic /Bookman-Light
 /Bookman-LightItalic /Helvetica-Narrow /Helvetica-Narrow-Bold /Helvetica-Narrow-BoldOblique /Helvetica-Narrow-Oblique /NewCenturySchlbk-Roman /NewCenturySchlbk-Bold /NewCenturySchlbk-BoldItalic /NewCenturySchlbk-Italic /Palatino-Bold
 /Palatino-BoldItalic /Palatino-Italic /Palatino-Roman ] {ISOLatin1Encoding reEncode } forall
%%EndProlog
%%BeginSetup
%%EndSetup
newpath  gsave  .25 .25 scale  gsave  0 0 t black[  ] 0 sd 3 lw 1 1 1 c 2268 2203 0 0 bf black 1 1 1 c 1814 1763 227 220 bf black 1814 1763 227 220 bl 0 0 0.6 c 1 1 1 c black 0 0 0.6 c 227 220 m 33 X 5 Y 16 X -5 Y 50 X 1 Y 33 X -1 Y 198 X 1 Y 16 X -1
 Y 17 X 1 Y 33 X -1 Y 16 X 1 Y 50 X 21 Y 16 X 735 Y 17 X 922 Y 16 X -1275 Y 17 X 474 Y 16 X -346 Y 17 X -523 Y 16 X -3 Y 17 X 917 Y 16 X -423 Y 16 X -309 Y 17 X 1365 Y 16 X -300 Y 17 X 393 Y 16 X -1473 Y 17 X 193 Y 16 X 138 Y 17 X -507 Y 214 X 5 Y 17
 X -5 Y 115 X 17 Y 17 X -17 Y 511 X 10 Y 17 X -10 Y 16 X 18 Y 17 X -13 Y 16 X -5 Y 132 X s black 227 220 m 1814 X s
 gsave  2268 2203 0 0 C 1688.73 69.6934 t 0 r /Helvetica findfont 72.3739 sf 0 0 m (ADC count) show NC gr  400 273 m -53 Y s 482 247 m -27 Y s 565 247 m -27 Y s 647 247 m -27 Y s 730 273 m -53 Y s 812 247 m -27 Y s 895 247 m -27 Y s 977 247 m -27 Y s
 1060 273 m -53 Y s 1142 247 m -27 Y s 1225 247 m -27 Y s 1307 247 m -27 Y s 1389 273 m -53 Y s 1472 247 m -27 Y s 1554 247 m -27 Y s 1637 247 m -27 Y s 1719 273 m -53 Y s 400 273 m -53 Y s 317 247 m -27 Y s 235 247 m -27 Y s 1719 273 m -53 Y s 1802
 247 m -27 Y s 1884 247 m -27 Y s 1967 247 m -27 Y s
 gsave  2268 2203 0 0 C 359.189 150.109 t 0 r /Helvetica findfont 72.3739 sf 0 0 m (20) show NC gr 
 gsave  2268 2203 0 0 C 688.893 150.109 t 0 r /Helvetica findfont 72.3739 sf 0 0 m (40) show NC gr 
 gsave  2268 2203 0 0 C 1018.6 150.109 t 0 r /Helvetica findfont 72.3739 sf 0 0 m (60) show NC gr 
 gsave  2268 2203 0 0 C 1348.3 150.109 t 0 r /Helvetica findfont 72.3739 sf 0 0 m (80) show NC gr 
 gsave  2268 2203 0 0 C 1659.24 150.109 t 0 r /Helvetica findfont 72.3739 sf 0 0 m (100) show NC gr  227 220 m 1763 Y s
 gsave  2268 2203 0 0 C 117.943 1356.34 t 90 r /Helvetica findfont 72.3739 sf 0 0 m (Number of samples) show NC gr  281 220 m -54 X s 254 268 m -27 X s 254 315 m -27 X s 254 362 m -27 X s 254 410 m -27 X s 281 457 m -54 X s 254 504 m -27 X s 254 552
 m -27 X s 254 599 m -27 X s 254 646 m -27 X s 281 694 m -54 X s 254 741 m -27 X s 254 789 m -27 X s 254 836 m -27 X s 254 883 m -27 X s 281 931 m -54 X s 254 978 m -27 X s 254 1025 m -27 X s 254 1073 m -27 X s 254 1120 m -27 X s 281 1167 m -54 X s
 254 1215 m -27 X s 254 1262 m -27 X s 254 1309 m -27 X s 254 1357 m -27 X s 281 1404 m -54 X s 254 1451 m -27 X s 254 1499 m -27 X s 254 1546 m -27 X s 254 1594 m -27 X s 281 1641 m -54 X s 254 1688 m -27 X s 254 1736 m -27 X s 254 1783 m -27 X s
 254 1830 m -27 X s 281 1878 m -54 X s 281 1878 m -54 X s 254 1925 m -27 X s 254 1972 m -27 X s
 gsave  2268 2203 0 0 C 176.914 195.678 t 0 r /Helvetica findfont 72.3739 sf 0 0 m (0) show NC gr 
 gsave  2268 2203 0 0 C 56.2908 431.563 t 0 r /Helvetica findfont 72.3739 sf 0 0 m (5000) show NC gr 
 gsave  2268 2203 0 0 C 16.0831 667.448 t 0 r /Helvetica findfont 72.3739 sf 0 0 m (10000) show NC gr 
 gsave  2268 2203 0 0 C 16.0831 906.014 t 0 r /Helvetica findfont 72.3739 sf 0 0 m (15000) show NC gr 
 gsave  2268 2203 0 0 C 16.0831 1141.9 t 0 r /Helvetica findfont 72.3739 sf 0 0 m (20000) show NC gr 
 gsave  2268 2203 0 0 C 16.0831 1377.79 t 0 r /Helvetica findfont 72.3739 sf 0 0 m (25000) show NC gr 
 gsave  2268 2203 0 0 C 16.0831 1616.35 t 0 r /Helvetica findfont 72.3739 sf 0 0 m (30000) show NC gr 
 gsave  2268 2203 0 0 C 16.0831 1852.24 t 0 r /Helvetica findfont 72.3739 sf 0 0 m (35000) show NC gr  1 1 1 c black
 gsave  2268 2203 0 0 C 809.516 2096.16 t 0 r /Helvetica findfont 96.4986 sf 0 0 m (All ADC counts) show NC gr  1 1 1 c 453 352 1769 1708 bf black 1769 1708 m 453 X s 2222 1708 m 352 Y s 2222 2060 m -453 X s 1769 2060 m -352 Y s 1 1 1 c black
 gsave  2268 2203 0 0 C 1860.28 1996.98 t 0 r /Helvetica findfont 75.0545 sf 0 0 m (signalall) show NC gr  1769 1972 m 453 X s
 gsave  2268 2203 0 0 C 1790.58 1908.53 t 0 r /Helvetica findfont 56.2908 sf 0 0 m (Entries ) show NC gr 
 gsave  2268 2203 0 0 C 1996.98 1908.53 t 0 r /Helvetica findfont 56.2908 sf 0 0 m ( 967680) show NC gr 
 gsave  2268 2203 0 0 C 1790.58 1820.07 t 0 r /Helvetica findfont 56.2908 sf 0 0 m (Mean  ) show NC gr 
 gsave  2268 2203 0 0 C 2026.47 1820.07 t 0 r /Helvetica findfont 56.2908 sf 0 0 m (  46.54) show NC gr 
 gsave  2268 2203 0 0 C 1790.58 1731.61 t 0 r /Helvetica findfont 56.2908 sf 0 0 m (RMS   ) show NC gr 
 gsave  2268 2203 0 0 C 2026.47 1731.61 t 0 r /Helvetica findfont 56.2908 sf 0 0 m (  5.977) show NC gr  1 1 1 c black
 gsave  2268 2203 0 0 C 809.516 2096.16 t 0 r /Helvetica findfont 96.4986 sf 0 0 m (All ADC counts) show NC gr 
 gr  gr showpage
end
%%EOF
